{
  "build": {
    "@babel/core": "*",
    "@babel/preset-env": "*",
    "@babel/preset-react": "*",
    "@mintlab/eslint-config": "*",
    "@mintlab/eslint-config-react": "*",
    "acorn": "*",
    "babel-core": "*",
    "babel-eslint": "*",
    "babel-jest": "*",
    "babel-loader": "*",
    "chalk": "*",
    "css-loader": "*",
    "del": "*",
    "esdoc": "*",
    "esdoc-ecmascript-proposal-plugin": "*",
    "esdoc-jsx-plugin": "*",
    "esdoc-react-plugin": "*",
    "esdoc-standard-plugin": "*",
    "eslint": "*",
    "eslint-plugin-jsx-a11y": "*",
    "extract-text-webpack-plugin": "*",
    "file-loader": "*",
    "glob": "*",
    "hogan.js": "*",
    "html-minifier": "*",
    "http-server": "*",
    "inquirer": "*",
    "internal-ip": "*",
    "jest": "*",
    "mkdirp": "*",
    "mustache": "*",
    "postcss": "*",
    "postcss-cssnext": "*",
    "postcss-loader": "*",
    "postcss-preset-env": "*",
    "react-a11y": "*",
    "style-loader": "*",
    "webpack": "*",
    "webpack-concat-plugin": "*",
    "webpack-serve": "*"
  },
  "vendor": {
    "@mintlab/ie11": "*",
    "@mintlab/kitchen-sink": "*",
    "@mintlab/ui": "*",
    "classnames": "*",
    "deepmerge": "*",
    "email-regex": "*",
    "fast-deep-equal": "*",
    "i18next": "*",
    "immutability-helper": "*",
    "immutable": "*",
    "react": "*",
    "react-dom": "*",
    "react-i18next": "*",
    "react-redux": "*",
    "redux": "*"
  }
}
